<svg width="12" height="12" viewBox="0 0 12 12" fill="none" xmlns="http://www.w3.org/2000/svg">
<path d="M2.72993 10.7987L10.7988 2.72979C11.1676 2.36103 11.2286 1.779 10.881 1.4314C10.5334 1.08377 9.95112 1.14505 9.5824 1.51377L1.51371 9.58246C1.14499 9.95119 1.0837 10.5334 1.43134 10.8811C1.77897 11.2287 2.36121 11.1674 2.72993 10.7987Z" fill="white" stroke="white" stroke-width="0.25"/>
<path d="M1.52264 2.72583L9.49701 10.7002C9.86181 11.065 10.4378 11.1259 10.7819 10.7818C11.126 10.4377 11.0649 9.86146 10.7001 9.4967L2.72594 1.52252C2.36118 1.15776 1.78498 1.09662 1.44086 1.44075C1.09674 1.78487 1.15787 2.36107 1.52264 2.72583Z" fill="white" stroke="white" stroke-width="0.25"/>
</svg>
